questions,var1,var2,var3,var4,correct
В каком году была уничтожена Западная Римская империя?,В 476 году,В 410 году,В 395 году,В 330 году,В 476 году
"Какой варварский военачальник сверг последнего императора Западной Римской империи Ромула Августа, что традиционно считается её фактическим концом?",Аларих,Теодорих,Одоакр,Атилла,Одоакр
Куда была перенесена столица Западной Римской империи при императоре Гонории?,В Равенну,В Милан,В Толедо,В Париж,В Равенну
"Какое кочевое племя, пришедшее из Китая, сыграло ключевую роль в Великом переселение народов?",Гунны,Готы,Саксы,Аланы,Гунны
Какое изменение в устройстве Римской империи произошло в конце правления Феодосия?,Был восстановлен Принципат,Римская империя была разделена на Западную и Восточную,Императорская власть была передана Папам Римским,Императоров стали избирать графы-выборщики,Римская империя была разделена на Западную и Восточную
Кто из королей Англии смог получить власть над половиной Франции посредством женитьбы на Алиеноре Аквитанской?,Генрих II Плантагенет,Людовик IX Святой,Гарольд II Годвинсон,Иоанн Безземельный,Генрих II Плантагенет
В каком году была составлена Великая хартия вольностей?,В 1265 году,В 1215 году,В 1137 году,В 1066 году,В 1215 году
Какой из королей Франции созвал первые Генеральные штаты?,Филипп IV Красивый,Людовик IX Святой,Иоанн Безземельный,Гуго Капет,Филипп IV Красивый
Какие католические святые основали первые нищенствующие ордена Католической церкви?,Святой Петр и святой Павел,Святой Бенедикт Нурсийский и святой Ромуальд,Святой Доминик и святой Франциск Ассизский,Святой Целестин V и святой Каэтан Тиенский,Святой Доминик и святой Франциск Ассизский
Какой из нищенствующих орденов был создан под сильным впечатлением от Альбигойской ереси в Франции и должен был бороться с ересью?,Францисканцы,Цистерцианцы,Капуцины,Доминиканцы,Доминиканцы
"В каком году произошла битва при Азенкуре, после которой был заключен договор в Труа, признававший короля Англии наследником французской короны?",В 1429 году,В 1415 году,В 1372 году,В 1346 году,В 1415 году
Какое антифеодальное восстание вспыхнуло во Франции в 1381 году и стало крупнейшим в истории Франции крестьянским восстанием?,Восстание тюшенов,Восстание Уота Тайлера,Жакерия,Восстания ворасов,Жакерия
Кто из королей Англии смог присоединить к титулатуре королей Англии титул короля Франции?,Ричард I Львиное Сердце,Эдуард III,Генрих V,Карл V,Генрих V
Какое славянское государство вошло в состав Священной Римской империи?,Третье Болгарское царство,Королевство Венгрия,Чешское королевство,Королевство Польское,Чешское королевство
Чем Священная Римская империя отличалась от остальных королевств западной Европы?,Империя управлялась вольными городами,Верховный правитель страны избирался советом феодалов,Империя крестилась только в XII веке,В империи церковь изначально находилась под контролем Императоров,Верховный правитель страны избирался советом феодалов
В какой торговый союз объединились вольные города северной Германии?,Ганза,Ломбардская лига,Декаполис,Симмахия,Ганза
"Кто их ханов улуса Джучи пошёл в западный поход, покорил Русь и дошёл до Венгрии?",Джучи,Батый,Тэмуджин,Тамерлан,Батый
Какое из течений мысли XIX века была запрещено в Германии 1878 года?,Либералы,Социалисты,Консерваторы,Анархисты,Социалисты
В каком веке польский князь Мешко I подчинил себе племена вдоль реки Вислы?,В первой половине IX века,Во второй половине X века,В первой половине XI века,Во второй половине XI века,Во второй половине X века
"Как звали Папу Римского, призвавшего к Первому крестовому походу?",Иоанн VI,Урбан II,Пий I,Август III,Урбан II
Как называлось воинское сословие Японии?,Консисюру,Асигару,Буси,Бакуфу,Буси
В каком году Оттон I предпринял второй поход в Италию?,961,917,913,943,961
Какое государство смогло захватить часть территорий Византии и заставило платить дань?,Остготское королевство,Болгарское царство,Королевство франков,Иран,Иран
"Какое событие произошло в России спустя год после того, как Абдуллахан официально был признан верховным правителем государства Шейбанидов?",реформы Ивана IV,основан Архангельск,завоевано Казанское ханство,началось восстание Хлопка,основан Архангельск
На какой территории расселились печенеги в конце IХ-Х вв.?,в степях Поволжья,на границах Рязанского княжества,в верховьях Дона,в низовьях Днепра,в низовьях Днепра
Что позволило небольшому отряду казаков Ермака разбить превосходящие силы сибирского хана Кучума?,внезапность нападения на войска Кучума,подход казаков к ставке Кучума на боевых ладьях по реке Иртыш,наличие огнестрельного оружия,окружение войск Кучума резервным отрядом,наличие огнестрельного оружия
Когда в России оформился абсолютизм - неограниченная царская власть?,при Иване Грозном,при Александре I,при Екатерине II,при Петре I,при Петре I
"Как назывался корабль, на котором прибыли отцы-пилигримы, основавшие первую Английскую колонию в Америке?",«Дредноут»,«Виргиния»,«Мейфлауэр»,«Тринидад»,«Мейфлауэр»
Как называлась сделка по приобретению США французских владений в Северной Америке в 1803 г.?,Луизианская покупка,Французская сделка,Восстание виски,Покупка Гадсдена,Луизианская покупка
Что явилось результатом аннексии Техаса США в 1845 г.?,Сражение при Энтитеме,Кампания на полуострове,Американо-мексиканская война,Вторая Семинольская война,Американо-мексиканская войн
